NLP in R Part 3: Sentiment Analyses
…
#divide the number of co-occurences with negative words by the total co-occurrences with both postive and negative
neg_count<-as.numeric(fcm_hashsent[1,])
pos_count<-as.numeric(fcm_hashsent[2,])
sent_count<-as.numeric(fcm_hashsent[2,])+as.numeric(fcm_hashsent[1,])
hash_ratio<-neg_count/sent_count

#now let's look at the hashtags with that highest proportion of negative words
#excluding hashtags that didn't co-occur with at least 10 sentiment words
tibble(negativity=hash_ratio, 
       sent_count=sent_count,
       hashtag=featnames(fcm_hashsent))%>%
  filter(sent_count>9)%>%
  arrange(desc(negativity))

## # A tibble: 70 x 3
##    negativity sent_count hashtag                  
##         <dbl>      <dbl> <chr>                    
##  1      1           3769 negative                 
##  2      1             11 #demlies                 
##  3      0.909         11 #fucktrump               
##  4      0.909         11 #bidenharristosaveamerica
##  5      0.818         11 #geoengineering          
##  6      0.810         21 #resist                  
##  7      0.727         11 #australia               
##  8      0.722         18 #newyork                 
##  9      0.706         17 #oil                     
## 10      0.703         37 #climatechangeisreal     
## # ... with 60 more rows
…
